{
    "extends": ["tslint:latest", "tslint-config-prettier", "tslint-react"],
    "rules": {
        "no-submodule-imports": [
            true,
            "express-validator",
            "react-toolbox",
            "ramda",
            "classnames",
            "src"
        ],
        "interface-name": [true, "never-prefix"],
        "interface-over-type-literal": false,
        "no-implicit-dependencies": false,
        "object-literal-sort-keys": false
    }
}
